…
## unnested version
rrapply(gh_repos, how = "bind") |>
  as_tibble()
#> # A tibble: 176 × 84
#>          id name       full_…¹ owner…² owner…³ owner…⁴ owner…⁵ owner…⁶ owner…⁷ owner…⁸ owner…⁹ owner…˟ owner…˟ owner…˟ owner…˟ owner…˟ owner…˟ owner…˟
#>       <int> <chr>      <chr>   <chr>     <int> <chr>   <chr>   <chr>   <chr>   <chr>   <chr>   <chr>   <chr>   <chr>   <chr>   <chr>   <chr>   <chr>  
#>  1 61160198 after      gaborc… gaborc…  660288 https:… ""      https:… https:… https:… https:… https:… https:… https:… https:… https:… https:… https:…
#>  2 40500181 argufy     gaborc… gaborc…  660288 https:… ""      https:… https:… https:… https:… https:… https:… https:… https:… https:… https:… https:…
#>  3 36442442 ask        gaborc… gaborc…  660288 https:… ""      https:… https:… https:… https:… https:… https:… https:… https:… https:… https:… https:…
#>  4 34924886 baseimpor… gaborc… gaborc…  660288 https:… ""      https:… https:… https:… https:… https:… https:… https:… https:… https:… https:… https:…
#>  5 61620661 citest     gaborc… gaborc…  660288 https:… ""      https:… https:… https:… https:… https:… https:… https:… https:… https:… https:… https:…
#>  6 33907457 clisymbols gaborc… gaborc…  660288 https:… ""      https:… https:… https:… https:… https:… https:… https:… https:… https:… https:… https:…
#>  7 37236467 cmaker     gaborc… gaborc…  660288 https:… ""      https:… https:… https:… https:… https:… https:… https:… https:… https:… https:… https:…
#>  8 67959624 cmark      gaborc… gaborc…  660288 https:… ""      https:… https:… https:… https:… https:… https:… https:… https:… https:… https:… https:…
#>  9 63152619 conditions gaborc… gaborc…  660288 https:… ""      https:… https:… https:… https:… https:… https:… https:… https:… https:… https:… https:…
#> 10 24343686 crayon     gaborc… gaborc…  660288 https:… ""      https:… https:… https:… https:… https:… https:… https:… https:… https:… https:… https:…
#> # … with 166 more rows, 66 more variables: owner.type <chr>, owner.site_admin <lgl>, private <lgl>, html_url <chr>, description <list>, fork <lgl>,
#> #   url <chr>, forks_url <chr>, keys_url <chr>, collaborators_url <chr>, teams_url <chr>, hooks_url <chr>, issue_events_url <chr>, events_url <chr>,
#> #   assignees_url <chr>, branches_url <chr>, tags_url <chr>, blobs_url <chr>, git_tags_url <chr>, git_refs_url <chr>, trees_url <chr>,
#> #   statuses_url <chr>, languages_url <chr>, stargazers_url <chr>, contributors_url <chr>, subscribers_url <chr>, subscription_url <chr>,
#> #   commits_url <chr>, git_commits_url <chr>, comments_url <chr>, issue_comment_url <chr>, contents_url <chr>, compare_url <chr>, merges_url <chr>,
#> #   archive_url <chr>, downloads_url <chr>, issues_url <chr>, pulls_url <chr>, milestones_url <chr>, notifications_url <chr>, labels_url <chr>,
#> #   releases_url <chr>, deployments_url <chr>, created_at <chr>, updated_at <chr>, pushed_at <chr>, git_url <chr>, ssh_url <chr>, clone_url <chr>, …
#> # ℹ Use `print(n = ...)` to see more rows, and `colnames()` to see all variable names
…
## unnested version
rrapply(got_chars, how = "bind") |>
  as_tibble()
#> # A tibble: 30 × 18
#>    url                             id name  gender culture born  died  alive titles aliases father mother spouse alleg…¹ books povBo…² tvSer…³ playe…⁴
#>    <chr>                        <int> <chr> <chr>  <chr>   <chr> <chr> <lgl> <list> <list>  <chr>  <chr>  <chr>  <list>  <lis> <list>  <list>  <list> 
#>  1 https://www.anapioficeandfi…  1022 Theo… Male   "Ironb… "In … ""    TRUE  <chr>  <chr>   ""     ""     ""     <chr>   <chr> <chr>   <chr>   <chr>  
#>  2 https://www.anapioficeandfi…  1052 Tyri… Male   ""      "In … ""    TRUE  <chr>  <chr>   ""     ""     "http… <chr>   <chr> <chr>   <chr>   <chr>  
#>  3 https://www.anapioficeandfi…  1074 Vict… Male   "Ironb… "In … ""    TRUE  <chr>  <chr>   ""     ""     ""     <chr>   <chr> <chr>   <chr>   <chr>  
#>  4 https://www.anapioficeandfi…  1109 Will  Male   ""      ""    "In … FALSE <chr>  <chr>   ""     ""     ""     <lgl>   <chr> <chr>   <chr>   <chr>  
#>  5 https://www.anapioficeandfi…  1166 Areo… Male   "Norvo… "In … ""    TRUE  <chr>  <chr>   ""     ""     ""     <chr>   <chr> <chr>   <chr>   <chr>  
#>  6 https://www.anapioficeandfi…  1267 Chett Male   ""      "At … "In … FALSE <chr>  <chr>   ""     ""     ""     <lgl>   <chr> <chr>   <chr>   <chr>  
#>  7 https://www.anapioficeandfi…  1295 Cres… Male   ""      "In … "In … FALSE <chr>  <chr>   ""     ""     ""     <lgl>   <chr> <chr>   <chr>   <chr>  
#>  8 https://www.anapioficeandfi…   130 Aria… Female "Dorni… "In … ""    TRUE  <chr>  <chr>   ""     ""     ""     <chr>   <chr> <chr>   <chr>   <chr>  
#>  9 https://www.anapioficeandfi…  1303 Daen… Female "Valyr… "In … ""    TRUE  <chr>  <chr>   ""     ""     "http… <chr>   <chr> <chr>   <chr>   <chr>  
#> 10 https://www.anapioficeandfi…  1319 Davo… Male   "Weste… "In … ""    TRUE  <chr>  <chr>   ""     ""     "http… <chr>   <chr> <chr>   <chr>   <chr>  
#> # … with 20 more rows, and abbreviated variable names ¹​allegiances, ²​povBooks, ³​tvSeries, ⁴​playedBy
#> # ℹ Use `print(n = ...)` to see more rows
…
## unnested version (excluding deeply nested sublists)
discs <- rrapply(
  discog,
  condition = \(x, .xpos) length(.xpos) < 5,
  f = \(x) ifelse(is.null(x), NA, x),  ## replace NULLs
  how = "bind"
)
as_tibble(discs)
#> # A tibble: 155 × 12
#>    instance_id date_added                basic_information.year basic_information.mast…¹ basic…² basic…³ basic…⁴ basic…⁵ basic…⁶ basic…⁷     id rating
#>          <int> <chr>                                      <int> <chr>                      <int> <chr>   <chr>   <chr>   <chr>     <int>  <int>  <int>
#>  1   354823933 2019-02-16T17:48:59-08:00                   2015 <NA>                      7.50e6 "https… Demo    https:… https:…       0 7.50e6      0
#>  2   354092601 2019-02-13T14:13:11-08:00                   2013 https://api.discogs.com…  4.49e6 "https… Observ… https:… https:…  553057 4.49e6      0
#>  3   354091476 2019-02-13T14:07:23-08:00                   2017 https://api.discogs.com…  9.83e6 "https… I       https:… https:… 1109943 9.83e6      0
#>  4   351244906 2019-02-02T11:39:58-08:00                   2017 https://api.discogs.com…  9.77e6 "https… Oído A… https:… https:… 1128934 9.77e6      0
#>  5   351244801 2019-02-02T11:39:37-08:00                   2015 https://api.discogs.com…  7.24e6 "https… A Cat'… https:… https:…  857592 7.24e6      0
#>  6   351052065 2019-02-01T20:40:53-08:00                   2019 https://api.discogs.com…  1.31e7 "https… Tashme  https:… https:… 1498137 1.31e7      0
#>  7   350315345 2019-01-29T15:48:37-08:00                   2014 https://api.discogs.com…  7.11e6 "https… Demo    https:… https:…  852880 7.11e6      0
#>  8   350315103 2019-01-29T15:47:22-08:00                   2015 https://api.discogs.com…  1.05e7 "https… Let Th… https:… https:…  869410 1.05e7      0
#>  9   350314507 2019-01-29T15:44:08-08:00                   2017 https://api.discogs.com…  1.13e7 ""      Sub Sp… https:… https:… 1281224 1.13e7      0
#> 10   350314047 2019-01-29T15:41:35-08:00                   2017 <NA>                      1.17e7 "https… Demo    https:… https:…       0 1.17e7      0
#> # … with 145 more rows, and abbreviated variable names ¹​basic_information.master_url, ²​basic_information.id, ³​basic_information.thumb,
#> #   ⁴​basic_information.title, ⁵​basic_information.cover_image, ⁶​basic_information.resource_url, ⁷​basic_information.master_id
#> # ℹ Use `print(n = ...)` to see more rows

## unnest labels sublists 
labels <- rrapply(
  discog,
  condition = \(x, .xparents) "labels" %in% .xparents,
  how = "bind",
  options = list(coldepth = 5, namecols = TRUE)
)
as_tibble(labels)
#> # A tibble: 182 × 10
#>    L1    L2                L3     L4    name                                      entity_type catno   resource_url                          id entit…¹
#>    <chr> <chr>             <chr>  <chr> <chr>                                     <chr>       <chr>   <chr>                              <int> <chr>  
#>  1 1     basic_information labels 1     Tobi Records (2)                          1           TOB-013 https://api.discogs.com/labels/6… 633407 Label  
#>  2 2     basic_information labels 1     La Vida Es Un Mus                         1           Mus70   https://api.discogs.com/labels/3…  38322 Label  
#>  3 3     basic_information labels 1     La Vida Es Un Mus                         1           MUS118  https://api.discogs.com/labels/3…  38322 Label  
#>  4 4     basic_information labels 1     La Vida Es Un Mus                         1           MUS132  https://api.discogs.com/labels/3…  38322 Label  
#>  5 4     basic_information labels 2     Beat Generation                           1           BEAT64  https://api.discogs.com/labels/8…  88198 Label  
#>  6 4     basic_information labels 3     Beat Generation                           1           BEAT 64 https://api.discogs.com/labels/8…  88198 Label  
#>  7 5     basic_information labels 1     Katorga Works                             1           KW-043  https://api.discogs.com/labels/2… 205895 Label  
#>  8 6     basic_information labels 1     High Fashion Industries                   1           HFI017  https://api.discogs.com/labels/6… 637837 Label  
#>  9 7     basic_information labels 1     Mind Control Records (6)                  1           none    https://api.discogs.com/labels/7… 763103 Label  
#> 10 8     basic_information labels 1     Not On Label (Phantom Head Self-released) 1           none    https://api.discogs.com/labels/8… 879916 Label  
#> # … with 172 more rows, and abbreviated variable name ¹​entity_type_name
#> # ℹ Use `print(n = ...)` to see more rows

## merge disc id's with labels
merge(
  x = data.frame(L1 = rownames(discs), disc_id = discs[, "id"]),
  y = labels, 
  by = "L1", 
  sort = FALSE
) |>
  as_tibble()
#> # A tibble: 182 × 11
#>    L1     disc_id L2                L3     L4    name                                      entity_type catno   resource_url                 id entit…¹
#>    <chr>    <int> <chr>             <chr>  <chr> <chr>                                     <chr>       <chr>   <chr>                     <int> <chr>  
#>  1 1      7496378 basic_information labels 1     Tobi Records (2)                          1           TOB-013 https://api.discogs.com… 633407 Label  
#>  2 2      4490852 basic_information labels 1     La Vida Es Un Mus                         1           Mus70   https://api.discogs.com…  38322 Label  
#>  3 3      9827276 basic_information labels 1     La Vida Es Un Mus                         1           MUS118  https://api.discogs.com…  38322 Label  
#>  4 4      9769203 basic_information labels 1     La Vida Es Un Mus                         1           MUS132  https://api.discogs.com…  38322 Label  
#>  5 4      9769203 basic_information labels 2     Beat Generation                           1           BEAT64  https://api.discogs.com…  88198 Label  
#>  6 4      9769203 basic_information labels 3     Beat Generation                           1           BEAT 64 https://api.discogs.com…  88198 Label  
#>  7 5      7237138 basic_information labels 1     Katorga Works                             1           KW-043  https://api.discogs.com… 205895 Label  
#>  8 6     13117042 basic_information labels 1     High Fashion Industries                   1           HFI017  https://api.discogs.com… 637837 Label  
#>  9 7      7113575 basic_information labels 1     Mind Control Records (6)                  1           none    https://api.discogs.com… 763103 Label  
#> 10 8     10540713 basic_information labels 1     Not On Label (Phantom Head Self-released) 1           none    https://api.discogs.com… 879916 Label  
#> # … with 172 more rows, and abbreviated variable name ¹​entity_type_name
#> # ℹ Use `print(n = ...)` to see more rows
…
